00:45:14 5 143.909 14 2.839
00:48:52 5 142.922 14 3.007
00:52:37 5 143.954 14 3.023
00:56:20 5 142.468 14 3.008
01:00:00 5 144.27 14 3.015
01:03:40 5 143.644 14 3.057
01:07:18 5 142.753 14 3.007
01:11:00 5 142.729 14 3.012
01:14:46 5 144.081 14 8.672
01:18:35 5 143.979 14 3.009
01:22:13 5 143.659 14 2.92
01:25:52 5 148.243 14 2.996
01:29:31 5 142.008 14 3.036
01:33:07 5 143.356 14 8.707
01:36:54 5 143.154 14 8.516
01:40:46 5 142.669 14 3.001
01:44:28 5 141.972 14 2.954
01:48:10 5 143.261 14 2.93
01:51:54 5 143.692 14 2.918
01:55:36 5 144.558 14 2.917
02:01:13 5 143.378 14 2.87
02:04:51 5 143.306 14 3.008
02:08:33 5 143.757 14 2.901
02:13:08 5 143.079 14 2.948
02:16:52 5 143.468 14 3.022
02:20:36 5 142.235 14 2.917
02:24:26 5 143.767 14 2.847
02:28:07 5 143.245 14 2.997
02:31:46 5 142.419 14 2.994
02:35:25 5 145.843 14 2.874
02:39:25 5 143.097 14 3.007
02:43:05 5 143.567 14 3.002
02:46:43 5 146.54 14 3.002
02:50:24 5 144.146 14 2.982
02:54:06 5 144.334 14 2.815
02:57:54 5 142.951 14 2.815
03:01:51 5 144.651 14 3.05
03:05:43 5 143.333 14 2.872
03:09:26 5 143.154 14 2.889
03:13:08 5 143.956 14 3.097
03:20:38 5 141.814 14 2.913
03:24:18 5 143.645 14 3.02
03:27:58 5 142.851 14 2.782
03:32:04 5 144.126 14 2.911
03:35:59 5 143.981 14 2.998
03:40:22 5 143.762 14 3.034
03:43:59 5 144.29 14 2.885
03:47:42 5 143.056 14 2.99
03:51:18 5 145.748 14 3.078
03:54:58 5 143.034 14 2.927
03:58:36 5 142.461 14 3.015
04:03:30 5 143.205 14 3.196
04:07:16 5 142.754 14 3.008
04:11:04 5 143.572 14 2.907
04:14:45 5 142.844 14 2.917
04:18:22 5 143.753 14 2.852
04:22:02 5 143.029 14 2.795
04:25:41 5 143.475 14 2.994
04:29:16 5 143.331 14 3.007
04:32:55 5 144.002 14 2.91
04:36:38 5 143.434 14 8.635
04:40:29 5 143.727 14 2.992
04:44:25 5 143.554 14 2.922
04:48:06 5 143.784 14 3.027
04:53:17 5 143.741 14 3.008
04:57:29 5 143.129 14 3.009
05:01:15 5 142.851 14 2.998
05:06:09 5 142.659 14 3.2
05:14:55 5 144.584 14 2.989
05:26:48 5 143.015 14 2.936
05:30:26 5 143.129 14 2.875
05:34:10 5 142.267 14 2.883
09:28:41 5 142.881 14 2.932
09:34:32 5 142.803 14 3.045
09:38:19 5 142.854 14 3.001
09:42:01 5 143.824 14 2.984
09:45:54 5 144.088 14 2.974
09:49:43 5 145.215 14 8.574
09:53:33 5 143.344 14 3.007
09:57:20 5 147.13 14 3.011
10:01:00 5 145.513 14 8.569
10:04:51 5 142.905 14 3.011
10:09:34 5 142.759 14 2.996
10:13:51 5 142.776 14 3.037
10:17:42 5 144.532 14 3.027
10:23:50 5 141.894 14 2.919
10:27:37 5 146.431 14 3.001
10:31:18 5 143.086 14 3.061
10:35:00 5 141.108 14 3.06
10:38:46 5 143.319 14 2.914
10:42:30 5 144.159 14 3.05
10:46:16 5 143.036 14 2.991
10:50:04 5 142.729 14 3.016
10:53:46 5 144.589 14 2.916
10:57:34 5 143.202 14 3.05
11:01:31 5 143.114 14 3.066
11:05:17 5 143.14 14 3.009
11:09:04 5 144.276 14 2.984
11:13:07 5 144.716 14 3.015
11:16:59 5 146.362 14 2.999
11:20:49 5 143.148 14 3.016
11:24:49 5 144.761 14 3.03
11:28:34 5 142.856 14 2.942
11:32:19 5 143.532 14 3.025
11:37:10 5 143.315 14 3.448
11:40:58 5 144.117 14 3.044
11:44:49 5 145.038 14 3.065
11:48:37 5 143.509 14 3.031
11:52:31 5 143.865 14 2.967
11:56:22 5 144.9 14 2.846
12:00:07 5 144.049 14 2.988
12:03:57 5 141.589 14 2.968
12:07:49 5 142.736 14 2.976
12:11:37 5 142.646 14 3.132
12:15:28 5 142.911 14 3.0
12:19:22 5 143.298 14 2.981
12:23:14 5 142.835 14 2.976
12:23:14 0 142.835 14 2.976
